{
    "coming": [{
            "id": 489894,
            "img": "http://p1.meituan.net/w.h/movie/b3010743c85cf9451762d47cf172a4956109708.jpg",
            "wish": 18408,
            "wishst": 0,
            "nm": "我在时间尽头等你",
            "comingTitle": "2020年2月14日 周五"
        },
        {
            "id": 1298938,
            "img": "http://p0.meituan.net/w.h/movie/d0d282b9ae5f4428df19efdee35d224d3285431.jpg",
            "wish": 18068,
            "wishst": 0,
            "nm": "熊出没·狂野大陆",
            "comingTitle": "2020年1月25日 周六"
        },
        {
            "id": 1228869,
            "img": "http://p0.meituan.net/w.h/movie/a4af27ecc8ca48f4a68ed18326d4355c1251452.jpg",
            "wish": 17189,
            "wishst": 0,
            "nm": "半个喜剧",
            "comingTitle": "12月20日 周五"
        },
        {
            "id": 1280015,
            "img": "http://p1.meituan.net/w.h/movie/523795e01a659637d7476ae0d05ad3442558915.jpg",
            "wish": 16124,
            "wishst": 0,
            "nm": "武圣关公",
            "comingTitle": "2020年1月11日 周六"
        },
        {
            "id": 1282454,
            "img": "http://p1.meituan.net/w.h/movie/258bfc30cec1e20070697ab090dfcc052620540.jpg",
            "wish": 15746,
            "wishst": 0,
            "nm": "血鲨",
            "comingTitle": "2020年2月14日 周五"
        },
        {
            "id": 1297995,
            "img": "http://p0.meituan.net/w.h/movie/aa10dea915717372fc0b36bc75a4a5a92888124.jpg",
            "wish": 14778,
            "wishst": 0,
            "nm": "只有芸知道",
            "comingTitle": "12月20日 周五"
        },
        {
            "id": 1294417,
            "img": "http://p0.meituan.net/w.h/movie/582d57e86924b47279c001dca5a12adb5773823.png",
            "wish": 14450,
            "wishst": 0,
            "nm": "危险记忆",
            "comingTitle": "12月27日 周五"
        },
        {
            "id": 1216185,
            "img": "http://p0.meituan.net/w.h/movie/7d69fdf15daccc2aa24d6f64ba054b321653880.png",
            "wish": 14125,
            "wishst": 0,
            "nm": "利刃破冰",
            "comingTitle": "12月25日 周三"
        },
        {
            "id": 346409,
            "img": "http://p0.meituan.net/w.h/movie/2b89da4de407736aaf37f3f57a5de6f81446242.jpg",
            "wish": 13851,
            "wishst": 0,
            "nm": "尼斯大冒险",
            "comingTitle": "12月28日 周六"
        },
        {
            "id": 1226583,
            "img": "http://p0.meituan.net/w.h/movie/27382d39b20aaa267c4817c3c86b6a843428263.jpg",
            "wish": 12364,
            "wishst": 0,
            "nm": "征途",
            "comingTitle": "2020年1月1日 周三"
        }
    ],
    "paging": {
        "hasMore": true,
        "limit": 10,
        "offset": 10,
        "total": 128
    }
}