{
    "coming": [{
            "id": 1217023,
            "img": "http://p0.meituan.net/w.h/movie/120f2e1e6b0a67449e31107a598c5c911203737.jpg",
            "wish": 812364,
            "wishst": 0,
            "nm": "唐人街探案3",
            "comingTitle": "2020年1月25日 周六"
        },
        {
            "id": 1211269,
            "img": "http://p1.meituan.net/w.h/moviemachine/33ee262eb7bbeba3b7f5ffb2692e2073405334.jpg",
            "wish": 275582,
            "wishst": 0,
            "nm": "姜子牙",
            "comingTitle": "2020年1月25日 周六"
        },
        {
            "id": 1190122,
            "img": "http://p0.meituan.net/w.h/movie/4bfb08bfe0b8dd20776c6efc4015de6d995158.jpg",
            "wish": 249986,
            "wishst": 0,
            "nm": "叶问4",
            "comingTitle": "12月20日 周五"
        },
        {
            "id": 461076,
            "img": "http://p0.meituan.net/w.h/moviemachine/7c0b961c49c2cc1a5d1ed4615beb8dbf6695755.jpg",
            "wish": 173399,
            "wishst": 0,
            "nm": "紧急救援",
            "comingTitle": "2020年1月25日 周六"
        },
        {
            "id": 1250696,
            "img": "http://p1.meituan.net/w.h/movie/6573aca4bed234dc22d44a0f2d419ac9477072.jpg",
            "wish": 120065,
            "wishst": 0,
            "nm": "囧妈",
            "comingTitle": "2020年1月25日 周六"
        },
        {
            "id": 1217123,
            "img": "http://p0.meituan.net/w.h/movie/7176eb3a1e76980ec711d2c8dc77dd52297157.jpg",
            "wish": 104357,
            "wishst": 0,
            "nm": "中国女排",
            "comingTitle": "2020年1月25日 周六"
        },
        {
            "id": 1279731,
            "img": "http://p1.meituan.net/w.h/movie/4ce166a974522e45a39f8401433be6dd3453394.jpg",
            "wish": 101255,
            "wishst": 0,
            "nm": "宠爱",
            "comingTitle": "12月31日 周二"
        },
        {
            "id": 1237938,
            "img": "http://p1.meituan.net/w.h/movie/4abee68965dda5194d0c7e7e20111dc914241667.jpg",
            "wish": 58866,
            "wishst": 0,
            "nm": "凌晨两点半2",
            "comingTitle": "12月20日 周五"
        },
        {
            "id": 1216053,
            "img": "http://p1.meituan.net/w.h/movie/231d8a73010ed86b97e6dd960ff15259759606.jpg",
            "wish": 42010,
            "wishst": 0,
            "nm": "急先锋",
            "comingTitle": "2020年1月25日 周六"
        },
        {
            "id": 342867,
            "img": "http://p0.meituan.net/w.h/movie/85a5717821e7b4a848533c3494cc06202048234.jpg",
            "wish": 39253,
            "wishst": 0,
            "nm": "源·彩虹",
            "comingTitle": "2020年1月25日 周六"
        }
    ],
    "paging": {
        "hasMore": true,
        "limit": 10,
        "offset": 0,
        "total": 128
    }
}